{
	"commentStamp" : "",
	"super" : "RBObject",
	"category" : "Recipe-Book",
	"classinstvars" : [ ],
	"pools" : [ ],
	"classvars" : [ ],
	"instvars" : [
		"ingredients"
	],
	"name" : "Recipe",
	"type" : "normal"
}